team
…
Part Three

1

Numerical

homeCount <- t %>%
  pivot_longer(Ariz.:Wis., names_to='State', values_to='Count') %>%
  arrange(desc(Count))
homeCount

## # A tibble: 21 x 2
##    State Count
##    <chr> <int>
##  1 Iowa     42
##  2 Fla.     14
##  3 Minn.     8
##  4 Texas     7
##  5 Ill.      6
##  6 Ohio      6
##  7 Mo.       5
##  8 Ariz.     4
##  9 Kan.      4
## 10 Ga.       3
## #  with 11 more rows
…
